{
    "IsEncrypted": false,
    "Values": {
        "AzureWebJobsStorage": "UseDevelopmentStorage=true",
        "FUNCTIONS_WORKER_RUNTIME": "dotnet",
        "storageAccount": "DefaultEndpointsProtocol=https;AccountName=brgscrapersa;AccountKey=ghjDMS8Q3LPt7GSgi0iLlWK6KzmCkj8vS37+DEu0du/EqcZVX/FUT8WPs/hwsEaE2k8k1B3nMDomiBD/8JyzgA==;EndpointSuffix=core.windows.net"
    }
}